@startuml
       (Просмотр списка товаров)<- :Пользователь:
       (Просмотр списка товаров) <.. (Просмотр товара) : extends
       (Просмотр списка товаров) <.. (Поиск и фильтрация) : extends

       :Пользователь: -> (Покупка товара)
       (Покупка товара) ..> (Добавление в корзину) : include
       (Покупка товара) .> (Оплата) : include


@enduml